^C:\MPP\LAB_1\LAB_EX_1\STDAFX.CPP
C:\MPP\LAB_1\LAB_EX_1\DEBUG\LAB_EX_1.PCH
C:\MPP\LAB_1\LAB_EX_1\DEBUG\VC141.PDB
C:\MPP\LAB_1\LAB_EX_1\DEBUG\VC141.IDB
C:\MPP\LAB_1\LAB_EX_1\DEBUG\STDAFX.OBJ
^C:\MPP\LAB_1\LAB_EX_1\LAB_EX_1.CPP|C:\MPP\LAB_1\LAB_EX_1\LAB_EX_1DLG.CPP
C:\MPP\LAB_1\LAB_EX_1\DEBUG\VC141.PDB
C:\MPP\LAB_1\LAB_EX_1\DEBUG\VC141.IDB
C:\MPP\LAB_1\LAB_EX_1\DEBUG\LAB_EX_1.OBJ
^C:\MPP\LAB_1\LAB_EX_1\LAB_EX_1.CPP
C:\MPP\LAB_1\LAB_EX_1\DEBUG\LAB_EX_1.OBJ
^C:\MPP\LAB_1\LAB_EX_1\LAB_EX_1DLG.CPP
C:\MPP\LAB_1\LAB_EX_1\DEBUG\VC141.PDB
C:\MPP\LAB_1\LAB_EX_1\DEBUG\VC141.IDB
C:\MPP\LAB_1\LAB_EX_1\DEBUG\LAB_EX_1DLG.OBJ
