^C:\MPP\LAB_1\LAB_EX_1\DEBUG\LABEX1.RES|C:\MPP\LAB_1\LAB_EX_1\DEBUG\LAB_EX_1.OBJ|C:\MPP\LAB_1\LAB_EX_1\DEBUG\LAB_EX_1DLG.OBJ|C:\MPP\LAB_1\LAB_EX_1\DEBUG\STDAFX.OBJ
C:\MPP\LAB_1\DEBUG\LAB_EX_1.EXE
C:\MPP\LAB_1\DEBUG\LAB_EX_1.ILK
C:\MPP\LAB_1\DEBUG\LAB_EX_1.PDB
