^C:\MPP\LAB 1\EX_1\EX_1\DEBUG\EX1.RES|C:\MPP\LAB 1\EX_1\EX_1\DEBUG\EX_1.OBJ|C:\MPP\LAB 1\EX_1\EX_1\DEBUG\EX_1DLG.OBJ|C:\MPP\LAB 1\EX_1\EX_1\DEBUG\STDAFX.OBJ
C:\MPP\LAB 1\EX_1\DEBUG\EX_1.EXE
C:\MPP\LAB 1\EX_1\DEBUG\EX_1.ILK
C:\MPP\LAB 1\EX_1\DEBUG\EX_1.PDB
